<svg xmlns="http://www.w3.org/2000/svg" width="375" height="667" viewBox="0 0 375 667" fill="none">

<path d="M273 214C273 267.092 231.067 310 179.5 310C127.933 310 86 267.092 86 214C86 160.908 127.933 118 179.5 118C231.067 118 273 160.908 273 214Z" fill="#434343" stroke="white" stroke-width="6"/>
<path d="M140.859 154.699C140.742 154.559 140.648 154.395 140.578 154.207C140.508 154.02 140.449 153.832 140.402 153.645C140.355 153.434 140.32 153.223 140.297 153.012V152.414C140.297 152.25 140.309 152.098 140.332 151.957C140.355 151.793 140.414 151.664 140.508 151.57C141.234 151.383 142.02 151.242 142.863 151.148C143.707 151.031 144.504 150.926 145.254 150.832C146.121 150.738 146.977 150.656 147.82 150.586C148.055 150.422 148.266 150.305 148.453 150.234C148.641 150.164 148.793 150.164 148.91 150.234C148.957 150.234 149.004 150.328 149.051 150.516H149.191C150.035 150.492 150.844 150.469 151.617 150.445C152.273 150.422 152.918 150.422 153.551 150.445C154.207 150.445 154.711 150.457 155.062 150.48C155.25 150.504 155.391 150.645 155.484 150.902C155.578 151.16 155.602 151.488 155.555 151.887C155.531 152.285 155.426 152.719 155.238 153.188C155.051 153.656 154.746 154.102 154.324 154.523C153.785 154.383 153.223 154.289 152.637 154.242C152.051 154.172 151.523 154.113 151.055 154.066C150.469 154.02 149.918 153.996 149.402 153.996H149.227C149.25 154.934 149.262 155.977 149.262 157.125C149.262 158.25 149.25 159.398 149.227 160.57C149.227 161.719 149.215 162.855 149.191 163.98C149.168 165.082 149.145 166.066 149.121 166.934C149.121 168.316 149.121 169.512 149.121 170.52C149.121 171.504 149.156 172.348 149.227 173.051C149.297 173.73 149.402 174.281 149.543 174.703C149.684 175.125 149.883 175.465 150.141 175.723C150.117 175.746 150.047 175.816 149.93 175.934C149.836 176.074 149.695 176.215 149.508 176.355C149.344 176.496 149.133 176.625 148.875 176.742C148.641 176.859 148.371 176.906 148.066 176.883C147.293 176.859 146.719 176.602 146.344 176.109C145.969 175.617 145.711 174.926 145.57 174.035C145.43 173.145 145.371 172.066 145.395 170.801C145.441 169.535 145.512 168.094 145.605 166.477C145.676 165.375 145.734 164.238 145.781 163.066C145.852 161.895 145.91 160.77 145.957 159.691C146.027 158.59 146.086 157.57 146.133 156.633C146.18 155.672 146.227 154.84 146.273 154.137C145.688 154.16 145.09 154.207 144.48 154.277C143.941 154.324 143.355 154.383 142.723 154.453C142.09 154.523 141.469 154.605 140.859 154.699ZM157.91 168.48C158.191 167.637 158.426 166.922 158.613 166.336C158.824 165.75 159 165.281 159.141 164.93C159.305 164.508 159.445 164.168 159.562 163.91C159.703 163.535 159.855 163.16 160.02 162.785C160.207 162.41 160.395 162.07 160.582 161.766C160.77 161.438 160.945 161.168 161.109 160.957C161.273 160.746 161.414 160.605 161.531 160.535C161.625 160.488 161.836 160.488 162.164 160.535C162.516 160.582 162.891 160.699 163.289 160.887C163.711 161.051 164.098 161.285 164.449 161.59C164.824 161.895 165.082 162.27 165.223 162.715C165.363 163.254 165.41 163.957 165.363 164.824C165.316 165.691 165.246 166.582 165.152 167.496C165.082 168.41 165.023 169.277 164.977 170.098C164.953 170.918 165.012 171.539 165.152 171.961C165.246 172.195 165.34 172.43 165.434 172.664C165.527 172.852 165.633 173.051 165.75 173.262C165.891 173.449 166.043 173.613 166.207 173.754C165.527 174.012 164.977 174.199 164.555 174.316C164.156 174.457 163.852 174.551 163.641 174.598C163.383 174.668 163.207 174.68 163.113 174.633C162.926 174.562 162.75 174.387 162.586 174.105C162.422 173.824 162.281 173.379 162.164 172.77C162.117 172.582 162.105 172.254 162.129 171.785C162.152 171.316 162.188 170.789 162.234 170.203C162.281 169.617 162.328 169.008 162.375 168.375C162.422 167.719 162.469 167.109 162.516 166.547C162.562 165.984 162.586 165.492 162.586 165.07C162.609 164.648 162.609 164.367 162.586 164.227C162.469 163.828 162.305 163.547 162.094 163.383C161.883 163.195 161.719 163.172 161.602 163.312C161.32 163.664 161.004 164.273 160.652 165.141C160.324 165.984 160.008 166.91 159.703 167.918C159.398 168.902 159.129 169.887 158.895 170.871C158.684 171.855 158.555 172.664 158.508 173.297C158.508 173.438 158.391 173.59 158.156 173.754C157.945 173.895 157.699 174.023 157.418 174.141C157.16 174.258 156.902 174.328 156.645 174.352C156.387 174.398 156.211 174.363 156.117 174.246C156.047 174.176 155.895 174.012 155.66 173.754C155.449 173.496 155.332 173.062 155.309 172.453C155.262 171.867 155.262 171.07 155.309 170.062C155.355 169.031 155.367 167.953 155.344 166.828V164.227C155.344 163.172 155.332 161.719 155.309 159.867C155.309 157.992 155.297 155.52 155.273 152.449C155.531 152.309 155.766 152.191 155.977 152.098C156.188 151.98 156.387 151.887 156.574 151.816C156.785 151.723 156.984 151.652 157.172 151.605C158.18 151.348 158.707 151.348 158.754 151.605C158.777 151.84 158.754 152.59 158.684 153.855C158.66 154.395 158.625 155.074 158.578 155.895C158.531 156.715 158.473 157.711 158.402 158.883C158.355 160.055 158.285 161.438 158.191 163.031C158.121 164.602 158.027 166.418 157.91 168.48ZM172.605 174.387C170.965 174.387 169.699 173.836 168.809 172.734C167.918 171.633 167.473 170.191 167.473 168.41C167.473 167.168 167.648 166.008 168 164.93C168.375 163.828 168.867 162.879 169.477 162.082C170.086 161.285 170.789 160.664 171.586 160.219C172.406 159.75 173.262 159.516 174.152 159.516C175.02 159.516 175.758 159.832 176.367 160.465C176.977 161.074 177.281 161.953 177.281 163.102C177.281 163.852 177.117 164.602 176.789 165.352C176.461 166.078 176.027 166.734 175.488 167.32C174.973 167.883 174.398 168.34 173.766 168.691C173.133 169.043 172.523 169.219 171.938 169.219C171.562 169.219 171.246 169.172 170.988 169.078C170.73 168.984 170.496 168.844 170.285 168.656C170.355 169.992 170.648 170.93 171.164 171.469C171.68 171.984 172.348 172.242 173.168 172.242C173.73 172.242 174.223 172.125 174.645 171.891C175.09 171.656 175.465 171.387 175.77 171.082C176.074 170.777 176.32 170.473 176.508 170.168C176.695 169.84 176.824 169.594 176.895 169.43C176.965 169.289 177.082 169.219 177.246 169.219C177.434 169.219 177.527 169.359 177.527 169.641C177.527 169.898 177.434 170.297 177.246 170.836C177.082 171.352 176.801 171.879 176.402 172.418C176.004 172.934 175.488 173.391 174.855 173.789C174.246 174.188 173.496 174.387 172.605 174.387ZM174.223 161.027C174.082 161.027 173.812 161.18 173.414 161.484C173.039 161.766 172.629 162.188 172.184 162.75C171.762 163.312 171.363 163.992 170.988 164.789C170.637 165.562 170.414 166.441 170.32 167.426C171.727 167.098 172.84 166.582 173.66 165.879C174.48 165.176 174.891 164.145 174.891 162.785C174.891 162.105 174.809 161.648 174.645 161.414C174.48 161.156 174.34 161.027 174.223 161.027ZM189.094 163.207C189.094 163.535 189 163.875 188.812 164.227C188.648 164.555 188.438 164.871 188.18 165.176C187.922 165.48 187.629 165.75 187.301 165.984C186.996 166.195 186.703 166.324 186.422 166.371C186.609 165.645 186.668 165.082 186.598 164.684C186.527 164.285 186.41 163.992 186.246 163.805C186.059 163.594 185.824 163.477 185.543 163.453C185.121 163.453 184.711 163.699 184.312 164.191C183.938 164.66 183.609 165.246 183.328 165.949C183.047 166.629 182.824 167.367 182.66 168.164C182.496 168.938 182.414 169.641 182.414 170.273C182.391 170.719 182.402 171.152 182.449 171.574C182.473 171.926 182.508 172.289 182.555 172.664C182.625 173.039 182.719 173.332 182.836 173.543C182.695 173.66 182.461 173.801 182.133 173.965C181.828 174.129 181.5 174.234 181.148 174.281C180.82 174.328 180.516 174.27 180.234 174.105C179.977 173.941 179.836 173.59 179.812 173.051C179.766 172.535 179.73 171.961 179.707 171.328C179.707 170.672 179.707 170.027 179.707 169.395C179.73 168.738 179.754 168.094 179.777 167.461C179.801 166.828 179.836 166.242 179.883 165.703C179.93 164.672 179.953 163.875 179.953 163.312C179.953 162.75 179.941 162.211 179.918 161.695C179.918 161.602 180.07 161.473 180.375 161.309C180.703 161.121 181.055 160.957 181.43 160.816C181.828 160.676 182.191 160.594 182.52 160.57C182.848 160.547 183.012 160.617 183.012 160.781C183.012 161.039 182.977 161.555 182.906 162.328C182.859 163.078 182.789 163.863 182.695 164.684C182.859 164.238 183.07 163.758 183.328 163.242C183.609 162.727 183.926 162.246 184.277 161.801C184.629 161.355 185.027 160.992 185.473 160.711C185.918 160.406 186.41 160.254 186.949 160.254C187.371 160.254 187.711 160.383 187.969 160.641C188.25 160.898 188.473 161.191 188.637 161.52C188.801 161.848 188.918 162.176 188.988 162.504C189.059 162.832 189.094 163.066 189.094 163.207ZM200.379 172.207C200.426 172.371 200.496 172.523 200.59 172.664C200.66 172.781 200.754 172.898 200.871 173.016C201.012 173.109 201.176 173.168 201.363 173.191C201.199 173.52 201.035 173.742 200.871 173.859C200.777 173.93 200.695 173.977 200.625 174C200.414 174.07 200.098 174.105 199.676 174.105C199.254 174.105 198.844 173.977 198.445 173.719C198.305 173.602 198.176 173.426 198.059 173.191C197.941 173.004 197.836 172.746 197.742 172.418C197.672 172.066 197.613 171.621 197.566 171.082C197.238 171.785 196.863 172.348 196.441 172.77C196.043 173.168 195.645 173.461 195.246 173.648C194.801 173.906 194.344 174.059 193.875 174.105C193.289 174.152 192.727 174.059 192.188 173.824C191.672 173.566 191.227 173.191 190.852 172.699C190.5 172.184 190.23 171.562 190.043 170.836C189.855 170.109 189.797 169.289 189.867 168.375C189.938 167.414 190.125 166.559 190.43 165.809C190.734 165.059 191.098 164.391 191.52 163.805C191.941 163.219 192.387 162.727 192.855 162.328C193.324 161.906 193.77 161.566 194.191 161.309C194.637 161.027 195.012 160.828 195.316 160.711C195.645 160.57 195.855 160.488 195.949 160.465C196.207 160.395 196.43 160.371 196.617 160.395C196.805 160.418 196.969 160.523 197.109 160.711C197.156 160.781 197.215 160.863 197.285 160.957C197.332 161.051 197.391 161.18 197.461 161.344C197.531 161.484 197.59 161.648 197.637 161.836C197.074 162.094 196.547 162.387 196.055 162.715C195.562 163.02 195.105 163.395 194.684 163.84C194.285 164.285 193.934 164.824 193.629 165.457C193.324 166.09 193.09 166.863 192.926 167.777C192.691 168.926 192.75 169.852 193.102 170.555C193.477 171.258 193.98 171.551 194.613 171.434C194.988 171.316 195.352 171.094 195.703 170.766C196.008 170.484 196.324 170.062 196.652 169.5C197.004 168.938 197.332 168.164 197.637 167.18C197.754 165.773 197.848 164.672 197.918 163.875C198.012 163.055 198.094 162.434 198.164 162.012C198.258 161.52 198.328 161.191 198.375 161.027C198.445 160.91 198.586 160.805 198.797 160.711C199.008 160.594 199.242 160.5 199.5 160.43C199.758 160.359 199.992 160.324 200.203 160.324C200.414 160.301 200.555 160.301 200.625 160.324C200.672 160.348 200.695 160.641 200.695 161.203C200.695 161.742 200.672 162.434 200.625 163.277C200.602 164.098 200.566 165 200.52 165.984C200.473 166.945 200.426 167.859 200.379 168.727C200.355 169.594 200.332 170.355 200.309 171.012C200.309 171.645 200.332 172.043 200.379 172.207ZM210.258 160.078C210.914 160.078 211.523 160.266 212.086 160.641C212.648 161.016 213.129 161.508 213.527 162.117C213.926 162.727 214.242 163.43 214.477 164.227C214.711 165 214.828 165.809 214.828 166.652C214.828 167.496 214.734 168.387 214.547 169.324C214.359 170.262 214.066 171.129 213.668 171.926C213.27 172.723 212.754 173.391 212.121 173.93C211.488 174.445 210.715 174.703 209.801 174.703C209.074 174.703 208.383 174.445 207.727 173.93C207.094 173.391 206.602 172.723 206.25 171.926C206.203 172.746 206.098 173.578 205.934 174.422C205.77 175.289 205.688 176.32 205.688 177.516C205.688 177.867 205.699 178.266 205.723 178.711C205.746 179.156 205.781 179.602 205.828 180.047C205.875 180.492 205.945 180.902 206.039 181.277C206.133 181.652 206.238 181.945 206.355 182.156C205.957 182.391 205.594 182.566 205.266 182.684C204.961 182.801 204.691 182.883 204.457 182.93C204.199 183 203.953 183.035 203.719 183.035C203.414 183.035 203.215 182.906 203.121 182.648C203.027 182.391 202.98 181.934 202.98 181.277C202.98 180.855 202.992 180.246 203.016 179.449C203.062 178.676 203.109 177.785 203.156 176.777C203.227 175.77 203.285 174.715 203.332 173.613C203.402 172.488 203.461 171.387 203.508 170.309C203.578 169.23 203.625 168.234 203.648 167.32C203.695 166.383 203.719 165.598 203.719 164.965C203.719 164.191 203.707 163.594 203.684 163.172C203.66 162.727 203.625 162.398 203.578 162.188C203.555 161.953 203.52 161.789 203.473 161.695C203.426 161.602 203.367 161.496 203.297 161.379C203.508 161.215 203.754 161.074 204.035 160.957C204.34 160.816 204.633 160.723 204.914 160.676C205.219 160.605 205.488 160.582 205.723 160.605C205.98 160.629 206.18 160.688 206.32 160.781C206.438 160.898 206.52 161.074 206.566 161.309C206.637 161.543 206.695 161.895 206.742 162.363C207.188 161.754 207.691 161.227 208.254 160.781C208.84 160.312 209.508 160.078 210.258 160.078ZM208.887 172.629C209.309 172.629 209.707 172.43 210.082 172.031C210.48 171.633 210.82 171.129 211.102 170.52C211.406 169.887 211.641 169.195 211.805 168.445C211.992 167.672 212.086 166.91 212.086 166.16C212.086 165.34 212.004 164.672 211.84 164.156C211.699 163.617 211.512 163.195 211.277 162.891C211.066 162.562 210.832 162.34 210.574 162.223C210.34 162.082 210.129 162.012 209.941 162.012C209.496 162.012 209.074 162.199 208.676 162.574C208.277 162.926 207.926 163.395 207.621 163.98C207.316 164.543 207.07 165.176 206.883 165.879C206.719 166.582 206.637 167.285 206.637 167.988C206.637 168.645 206.695 169.254 206.812 169.816C206.953 170.379 207.129 170.871 207.34 171.293C207.551 171.715 207.785 172.043 208.043 172.277C208.324 172.512 208.605 172.629 208.887 172.629ZM227.273 160.5C227.32 162.562 227.355 164.367 227.379 165.914C227.402 167.461 227.426 168.762 227.449 169.816C227.473 171.059 227.484 172.125 227.484 173.016C227.508 174.117 227.414 175.254 227.203 176.426C227.016 177.621 226.699 178.711 226.254 179.695C225.809 180.68 225.223 181.488 224.496 182.121C223.77 182.754 222.891 183.07 221.859 183.07C220.617 183.07 219.668 182.812 219.012 182.297C218.355 181.805 217.875 181.242 217.57 180.609C217.266 179.977 217.09 179.379 217.043 178.816C216.996 178.277 216.973 177.961 216.973 177.867C216.973 177.68 217.09 177.469 217.324 177.234C217.559 177 217.91 176.789 218.379 176.602C218.566 176.531 218.754 176.473 218.941 176.426C219.105 176.379 219.27 176.344 219.434 176.32C219.598 176.297 219.75 176.309 219.891 176.355C219.656 176.777 219.516 177.258 219.469 177.797C219.445 178.336 219.516 178.84 219.68 179.309C219.867 179.801 220.137 180.211 220.488 180.539C220.84 180.867 221.285 181.031 221.824 181.031C222.574 181.031 223.16 180.809 223.582 180.363C224.027 179.941 224.355 179.414 224.566 178.781C224.801 178.148 224.941 177.48 224.988 176.777C225.059 176.074 225.094 175.453 225.094 174.914C225.094 174.492 225.082 173.953 225.059 173.297C225.059 172.617 225.023 171.867 224.953 171.047C224.672 171.516 224.344 171.973 223.969 172.418C223.594 172.84 223.195 173.215 222.773 173.543C222.352 173.871 221.918 174.129 221.473 174.316C221.051 174.527 220.629 174.633 220.207 174.633C219.48 174.633 218.895 174.41 218.449 173.965C218.004 173.496 217.664 172.922 217.43 172.242C217.195 171.539 217.031 170.789 216.938 169.992C216.867 169.172 216.832 168.422 216.832 167.742C216.832 167.227 216.855 166.605 216.902 165.879C216.949 165.129 217.008 164.414 217.078 163.734C217.148 163.055 217.23 162.469 217.324 161.977C217.441 161.461 217.559 161.168 217.676 161.098C218.355 160.699 219.023 160.477 219.68 160.43C220.336 160.383 220.828 160.465 221.156 160.676C220.875 160.887 220.641 161.238 220.453 161.73C220.266 162.223 220.113 162.773 219.996 163.383C219.879 163.969 219.797 164.59 219.75 165.246C219.703 165.879 219.68 166.453 219.68 166.969C219.68 167.391 219.691 167.895 219.715 168.48C219.738 169.066 219.785 169.629 219.855 170.168C219.949 170.707 220.078 171.164 220.242 171.539C220.406 171.914 220.617 172.102 220.875 172.102C221.391 172.102 221.871 171.914 222.316 171.539C222.762 171.164 223.148 170.695 223.477 170.133C223.828 169.57 224.098 168.973 224.285 168.34C224.473 167.684 224.566 167.074 224.566 166.512V166.23C224.52 165.621 224.473 165.047 224.426 164.508C224.379 163.945 224.332 163.441 224.285 162.996C224.262 162.551 224.238 162.188 224.215 161.906C224.215 161.602 224.215 161.402 224.215 161.309C224.215 161.074 224.367 160.863 224.672 160.676C225 160.488 225.352 160.359 225.727 160.289C226.125 160.195 226.477 160.16 226.781 160.184C227.109 160.207 227.273 160.312 227.273 160.5ZM142.512 199.559C142.371 199.418 142.266 199.266 142.195 199.102C142.125 198.914 142.066 198.727 142.02 198.539C141.973 198.328 141.938 198.117 141.914 197.906C141.891 197.719 141.891 197.531 141.914 197.344C141.914 196.992 141.984 196.723 142.125 196.535C142.383 196.488 142.664 196.441 142.969 196.395C143.273 196.324 143.566 196.266 143.848 196.219C144.176 196.172 144.516 196.125 144.867 196.078C145.055 195.891 145.301 195.691 145.605 195.48C145.934 195.246 146.297 195.035 146.695 194.848C147 194.707 147.211 194.707 147.328 194.848C147.445 194.988 147.527 195.281 147.574 195.727C148.16 195.68 148.77 195.633 149.402 195.586C150.035 195.539 150.691 195.516 151.371 195.516C152.285 195.492 153.141 195.469 153.938 195.445C154.617 195.422 155.297 195.422 155.977 195.445C156.68 195.445 157.219 195.457 157.594 195.48C157.781 195.504 157.922 195.645 158.016 195.902C158.133 196.137 158.168 196.453 158.121 196.852C158.098 197.227 157.98 197.637 157.77 198.082C157.559 198.527 157.242 198.961 156.82 199.383C156.258 199.266 155.66 199.172 155.027 199.102C154.418 199.031 153.855 198.973 153.34 198.926C152.73 198.879 152.145 198.867 151.582 198.891C150.902 198.891 150.223 198.914 149.543 198.961C148.863 198.984 148.219 199.02 147.609 199.066C147.586 200.121 147.562 201.352 147.539 202.758C147.539 204.141 147.527 205.676 147.504 207.363C147.832 207.316 148.148 207.293 148.453 207.293C148.758 207.27 149.074 207.246 149.402 207.223C150.246 207.176 151.066 207.129 151.863 207.082C152.66 207.035 153.352 207.059 153.938 207.152C154.547 207.223 155.004 207.398 155.309 207.68C155.613 207.961 155.684 208.406 155.52 209.016L155.027 210.703C154.98 210.586 154.852 210.492 154.641 210.422C154.453 210.328 154.23 210.258 153.973 210.211C153.691 210.141 153.375 210.082 153.023 210.035C152.203 209.941 151.301 209.93 150.316 210C149.332 210.07 148.383 210.176 147.469 210.316C147.469 211.488 147.48 212.602 147.504 213.656C147.551 214.688 147.598 215.625 147.645 216.469C147.715 217.312 147.773 218.039 147.82 218.648C147.867 219.258 147.902 219.715 147.926 220.02C147.949 220.23 147.926 220.395 147.855 220.512C147.738 220.652 147.598 220.816 147.434 221.004C147.27 221.191 147.059 221.379 146.801 221.566C146.543 221.754 146.227 221.906 145.852 222.023C145.5 222.164 145.09 222.246 144.621 222.27C144.41 222.27 144.305 222.164 144.305 221.953V211.055C143.906 211.031 143.543 210.727 143.215 210.141C142.887 209.555 142.734 208.898 142.758 208.172C142.922 208.125 143.086 208.09 143.25 208.066C143.438 208.043 143.613 208.008 143.777 207.961C143.965 207.914 144.141 207.879 144.305 207.855C144.305 206.168 144.316 204.598 144.34 203.145C144.363 201.668 144.398 200.402 144.445 199.348C144.234 199.371 144.012 199.395 143.777 199.418C143.59 199.441 143.379 199.465 143.145 199.488C142.91 199.512 142.699 199.535 142.512 199.559ZM166.98 208.207C166.98 208.535 166.887 208.875 166.699 209.227C166.535 209.555 166.324 209.871 166.066 210.176C165.809 210.48 165.516 210.75 165.188 210.984C164.883 211.195 164.59 211.324 164.309 211.371C164.496 210.645 164.555 210.082 164.484 209.684C164.414 209.285 164.297 208.992 164.133 208.805C163.945 208.594 163.711 208.477 163.43 208.453C163.008 208.453 162.598 208.699 162.199 209.191C161.824 209.66 161.496 210.246 161.215 210.949C160.934 211.629 160.711 212.367 160.547 213.164C160.383 213.938 160.301 214.641 160.301 215.273C160.277 215.719 160.289 216.152 160.336 216.574C160.359 216.926 160.395 217.289 160.441 217.664C160.512 218.039 160.605 218.332 160.723 218.543C160.582 218.66 160.348 218.801 160.02 218.965C159.715 219.129 159.387 219.234 159.035 219.281C158.707 219.328 158.402 219.27 158.121 219.105C157.863 218.941 157.723 218.59 157.699 218.051C157.652 217.535 157.617 216.961 157.594 216.328C157.594 215.672 157.594 215.027 157.594 214.395C157.617 213.738 157.641 213.094 157.664 212.461C157.688 211.828 157.723 211.242 157.77 210.703C157.816 209.672 157.84 208.875 157.84 208.312C157.84 207.75 157.828 207.211 157.805 206.695C157.805 206.602 157.957 206.473 158.262 206.309C158.59 206.121 158.941 205.957 159.316 205.816C159.715 205.676 160.078 205.594 160.406 205.57C160.734 205.547 160.898 205.617 160.898 205.781C160.898 206.039 160.863 206.555 160.793 207.328C160.746 208.078 160.676 208.863 160.582 209.684C160.746 209.238 160.957 208.758 161.215 208.242C161.496 207.727 161.812 207.246 162.164 206.801C162.516 206.355 162.914 205.992 163.359 205.711C163.805 205.406 164.297 205.254 164.836 205.254C165.258 205.254 165.598 205.383 165.855 205.641C166.137 205.898 166.359 206.191 166.523 206.52C166.688 206.848 166.805 207.176 166.875 207.504C166.945 207.832 166.98 208.066 166.98 208.207ZM168.316 206.555C168.316 206.414 168.504 206.262 168.879 206.098C169.254 205.934 169.664 205.805 170.109 205.711C170.578 205.594 171 205.535 171.375 205.535C171.773 205.512 171.973 205.594 171.973 205.781C171.973 206.133 171.949 206.637 171.902 207.293C171.855 207.926 171.797 208.605 171.727 209.332C171.656 210.035 171.586 210.75 171.516 211.477C171.445 212.18 171.398 212.777 171.375 213.27C171.328 213.785 171.281 214.348 171.234 214.957C171.188 215.473 171.152 216.047 171.129 216.68C171.105 217.312 171.105 217.957 171.129 218.613C171.129 218.73 171.012 218.848 170.777 218.965C170.543 219.082 170.285 219.164 170.004 219.211C169.723 219.281 169.453 219.316 169.195 219.316C168.938 219.316 168.797 219.27 168.773 219.176C168.727 219.082 168.68 218.918 168.633 218.684C168.586 218.449 168.539 218.121 168.492 217.699C168.445 217.254 168.41 216.691 168.387 216.012C168.363 215.309 168.375 214.465 168.422 213.48C168.516 211.535 168.527 210.035 168.457 208.98C168.387 207.902 168.34 207.094 168.316 206.555ZM170.777 199.559C171.246 199.559 171.691 199.699 172.113 199.98C172.535 200.262 172.746 200.637 172.746 201.105C172.746 201.457 172.652 201.797 172.465 202.125C172.301 202.453 172.09 202.746 171.832 203.004C171.574 203.262 171.281 203.473 170.953 203.637C170.625 203.777 170.32 203.848 170.039 203.848C169.664 203.848 169.359 203.789 169.125 203.672C168.891 203.531 168.703 203.379 168.562 203.215C168.445 203.027 168.363 202.828 168.316 202.617C168.27 202.406 168.246 202.207 168.246 202.02C168.246 201.785 168.281 201.527 168.352 201.246C168.422 200.941 168.551 200.672 168.738 200.438C168.926 200.18 169.184 199.969 169.512 199.805C169.84 199.641 170.262 199.559 170.777 199.559ZM169.898 202.828C170.039 202.828 170.191 202.781 170.355 202.688C170.543 202.57 170.707 202.441 170.848 202.301C171.012 202.16 171.141 202.008 171.234 201.844C171.352 201.68 171.41 201.539 171.41 201.422C171.41 201.234 171.316 201.141 171.129 201.141C171.012 201.141 170.859 201.188 170.672 201.281C170.508 201.375 170.344 201.492 170.18 201.633C170.016 201.75 169.875 201.891 169.758 202.055C169.664 202.195 169.617 202.336 169.617 202.477C169.617 202.711 169.711 202.828 169.898 202.828ZM179.109 219.387C177.469 219.387 176.203 218.836 175.312 217.734C174.422 216.633 173.977 215.191 173.977 213.41C173.977 212.168 174.152 211.008 174.504 209.93C174.879 208.828 175.371 207.879 175.98 207.082C176.59 206.285 177.293 205.664 178.09 205.219C178.91 204.75 179.766 204.516 180.656 204.516C181.523 204.516 182.262 204.832 182.871 205.465C183.48 206.074 183.785 206.953 183.785 208.102C183.785 208.852 183.621 209.602 183.293 210.352C182.965 211.078 182.531 211.734 181.992 212.32C181.477 212.883 180.902 213.34 180.27 213.691C179.637 214.043 179.027 214.219 178.441 214.219C178.066 214.219 177.75 214.172 177.492 214.078C177.234 213.984 177 213.844 176.789 213.656C176.859 214.992 177.152 215.93 177.668 216.469C178.184 216.984 178.852 217.242 179.672 217.242C180.234 217.242 180.727 217.125 181.148 216.891C181.594 216.656 181.969 216.387 182.273 216.082C182.578 215.777 182.824 215.473 183.012 215.168C183.199 214.84 183.328 214.594 183.398 214.43C183.469 214.289 183.586 214.219 183.75 214.219C183.938 214.219 184.031 214.359 184.031 214.641C184.031 214.898 183.938 215.297 183.75 215.836C183.586 216.352 183.305 216.879 182.906 217.418C182.508 217.934 181.992 218.391 181.359 218.789C180.75 219.188 180 219.387 179.109 219.387ZM180.727 206.027C180.586 206.027 180.316 206.18 179.918 206.484C179.543 206.766 179.133 207.188 178.688 207.75C178.266 208.312 177.867 208.992 177.492 209.789C177.141 210.562 176.918 211.441 176.824 212.426C178.23 212.098 179.344 211.582 180.164 210.879C180.984 210.176 181.395 209.145 181.395 207.785C181.395 207.105 181.312 206.648 181.148 206.414C180.984 206.156 180.844 206.027 180.727 206.027ZM189.727 218.051C189.703 218.191 189.574 218.344 189.34 218.508C189.129 218.648 188.871 218.777 188.566 218.895C188.285 219.012 188.016 219.082 187.758 219.105C187.5 219.152 187.324 219.129 187.23 219.035C187.137 218.941 186.984 218.766 186.773 218.508C186.562 218.25 186.434 217.828 186.387 217.242C186.34 216.633 186.316 215.871 186.316 214.957C186.316 214.02 186.305 212.988 186.281 211.863V210.457C186.281 210.035 186.27 209.543 186.246 208.98C186.246 208.418 186.234 207.832 186.211 207.223C186.422 207.105 186.633 207 186.844 206.906C187.078 206.789 187.289 206.695 187.477 206.625C187.688 206.531 187.887 206.461 188.074 206.414C188.566 206.273 188.941 206.191 189.199 206.168C189.457 206.145 189.609 206.227 189.656 206.414C189.68 206.555 189.668 206.895 189.621 207.434C189.574 207.902 189.516 208.617 189.445 209.578C189.375 210.516 189.258 211.828 189.094 213.516C189.398 212.766 189.645 212.121 189.832 211.582C190.043 211.043 190.219 210.609 190.359 210.281C190.5 209.883 190.629 209.566 190.746 209.332C190.863 209.027 191.016 208.688 191.203 208.312C191.391 207.938 191.578 207.586 191.766 207.258C191.977 206.93 192.164 206.637 192.328 206.379C192.516 206.121 192.656 205.969 192.75 205.922C192.82 205.875 193.031 205.875 193.383 205.922C193.734 205.969 194.109 206.086 194.508 206.273C194.906 206.438 195.293 206.684 195.668 207.012C196.043 207.316 196.289 207.691 196.406 208.137C196.547 208.652 196.594 209.332 196.547 210.176C196.523 211.02 196.465 211.887 196.371 212.777C196.301 213.668 196.242 214.512 196.195 215.309C196.148 216.105 196.195 216.715 196.336 217.137C196.383 217.371 196.453 217.582 196.547 217.77C196.594 217.957 196.652 218.133 196.723 218.297C196.816 218.438 196.91 218.543 197.004 218.613C196.441 218.871 195.984 219.059 195.633 219.176C195.281 219.293 195.012 219.375 194.824 219.422C194.59 219.492 194.426 219.516 194.332 219.492C194.121 219.422 193.934 219.246 193.77 218.965C193.629 218.684 193.5 218.238 193.383 217.629C193.336 217.441 193.312 217.137 193.312 216.715C193.336 216.27 193.371 215.777 193.418 215.238C193.465 214.676 193.512 214.102 193.559 213.516C193.629 212.906 193.676 212.344 193.699 211.828C193.746 211.289 193.781 210.832 193.805 210.457C193.828 210.059 193.828 209.789 193.805 209.648C193.688 209.227 193.523 208.934 193.312 208.77C193.102 208.582 192.938 208.559 192.82 208.699C192.516 209.051 192.188 209.625 191.836 210.422C191.508 211.195 191.191 212.051 190.887 212.988C190.582 213.902 190.324 214.816 190.113 215.73C189.902 216.645 189.773 217.418 189.727 218.051ZM210.469 196.676C210.469 196.934 210.445 197.438 210.398 198.188C210.352 198.938 210.293 199.84 210.223 200.895C210.152 201.949 210.082 203.109 210.012 204.375C209.941 205.641 209.883 206.93 209.836 208.242C209.789 209.555 209.742 210.785 209.695 211.934C209.672 213.059 209.66 214.066 209.66 214.957C209.684 215.848 209.73 216.598 209.801 217.207C209.871 217.793 209.977 218.191 210.117 218.402L208.535 219C208.418 219.047 208.277 219.07 208.113 219.07C207.949 219.07 207.773 219.023 207.586 218.93C207.422 218.836 207.281 218.672 207.164 218.438C207.047 218.203 206.988 217.875 206.988 217.453C206.988 217.289 206.988 217.09 206.988 216.855C207.012 216.598 207.023 216.305 207.023 215.977C206.742 216.445 206.438 216.902 206.109 217.348C205.781 217.793 205.418 218.18 205.02 218.508C204.645 218.836 204.234 219.094 203.789 219.281C203.344 219.492 202.875 219.598 202.383 219.598C201.914 219.598 201.457 219.492 201.012 219.281C200.566 219.094 200.168 218.801 199.816 218.402C199.465 218.004 199.172 217.488 198.938 216.855C198.727 216.223 198.621 215.461 198.621 214.57C198.621 212.953 198.809 211.547 199.184 210.352C199.559 209.133 200.027 208.125 200.59 207.328C201.176 206.508 201.797 205.898 202.453 205.5C203.133 205.078 203.754 204.867 204.316 204.867C205.184 204.867 205.852 205.102 206.32 205.57C206.789 206.016 207.129 206.484 207.34 206.977C207.363 206.297 207.375 205.664 207.375 205.078C207.398 204.469 207.41 203.953 207.41 203.531C207.41 201.797 207.375 200.25 207.305 198.891C207.234 197.531 207.059 196.5 206.777 195.797C207.105 195.609 207.398 195.469 207.656 195.375C207.938 195.281 208.184 195.211 208.395 195.164C208.652 195.094 208.875 195.059 209.062 195.059C209.578 195.059 209.941 195.211 210.152 195.516C210.363 195.797 210.469 196.184 210.469 196.676ZM207.129 212.988C207.176 212.379 207.199 211.746 207.199 211.09C207.223 210.41 207.246 209.73 207.27 209.051C207.105 209.309 206.906 209.531 206.672 209.719C206.461 209.906 206.227 209.953 205.969 209.859C206.062 209.156 206.051 208.617 205.934 208.242C205.84 207.867 205.699 207.586 205.512 207.398C205.301 207.188 205.055 207.07 204.773 207.047C204.352 207.047 203.93 207.281 203.508 207.75C203.109 208.219 202.746 208.805 202.418 209.508C202.113 210.188 201.867 210.926 201.68 211.723C201.492 212.496 201.398 213.211 201.398 213.867C201.398 215.18 201.574 216.094 201.926 216.609C202.301 217.125 202.699 217.383 203.121 217.383C203.473 217.383 203.836 217.242 204.211 216.961C204.609 216.68 204.984 216.316 205.336 215.871C205.711 215.426 206.051 214.957 206.355 214.465C206.684 213.949 206.941 213.457 207.129 212.988ZM218.062 212.32C218.578 212.508 219.07 212.684 219.539 212.848C220.008 213.012 220.418 213.211 220.77 213.445C221.121 213.68 221.402 213.961 221.613 214.289C221.824 214.594 221.93 214.98 221.93 215.449C221.93 216.012 221.801 216.539 221.543 217.031C221.309 217.523 220.957 217.957 220.488 218.332C220.02 218.707 219.445 219 218.766 219.211C218.109 219.445 217.371 219.562 216.551 219.562C215.637 219.562 214.898 219.469 214.336 219.281C213.773 219.117 213.34 218.918 213.035 218.684C212.73 218.449 212.531 218.215 212.438 217.98C212.344 217.746 212.297 217.559 212.297 217.418C212.297 217.137 212.355 216.832 212.473 216.504C212.59 216.152 212.812 215.777 213.141 215.379C213.281 215.215 213.434 215.062 213.598 214.922C213.926 214.641 214.254 214.465 214.582 214.395C214.535 214.934 214.594 215.379 214.758 215.73C214.945 216.059 215.18 216.316 215.461 216.504C215.766 216.691 216.094 216.82 216.445 216.891C216.82 216.961 217.172 216.996 217.5 216.996C217.828 216.996 218.156 216.949 218.484 216.855C218.836 216.762 219.152 216.645 219.434 216.504C219.715 216.34 219.938 216.164 220.102 215.977C220.289 215.766 220.383 215.543 220.383 215.309C220.383 215.051 220.277 214.84 220.066 214.676C219.855 214.512 219.586 214.383 219.258 214.289C218.953 214.172 218.613 214.09 218.238 214.043C217.887 213.973 217.547 213.902 217.219 213.832C216.891 213.762 216.445 213.668 215.883 213.551C215.344 213.41 214.805 213.199 214.266 212.918C213.75 212.637 213.293 212.262 212.895 211.793C212.52 211.324 212.332 210.703 212.332 209.93C212.332 209.039 212.555 208.266 213 207.609C213.469 206.93 214.031 206.367 214.688 205.922C215.367 205.453 216.082 205.102 216.832 204.867C217.582 204.633 218.25 204.516 218.836 204.516C219.141 204.516 219.469 204.562 219.82 204.656C220.172 204.727 220.5 204.867 220.805 205.078C221.109 205.266 221.355 205.523 221.543 205.852C221.754 206.18 221.859 206.602 221.859 207.117C221.859 207.633 221.812 208.055 221.719 208.383C221.648 208.688 221.531 208.934 221.367 209.121C221.227 209.285 221.051 209.391 220.84 209.438C220.629 209.484 220.383 209.508 220.102 209.508C219.914 209.508 219.738 209.484 219.574 209.438C219.434 209.391 219.281 209.344 219.117 209.297C218.953 209.25 218.801 209.168 218.66 209.051C218.895 208.77 219.07 208.5 219.188 208.242C219.328 207.984 219.398 207.668 219.398 207.293C219.398 206.965 219.305 206.672 219.117 206.414C218.953 206.156 218.672 206.027 218.273 206.027C217.852 206.027 217.441 206.109 217.043 206.273C216.668 206.438 216.328 206.66 216.023 206.941C215.742 207.223 215.508 207.551 215.32 207.926C215.156 208.277 215.074 208.664 215.074 209.086C215.074 209.719 215.309 210.316 215.777 210.879C216.27 211.441 217.031 211.922 218.062 212.32Z" fill="white"/>



<g clip-path="url(#clip2)">
<path d="M171.439 246.925C171.439 246.004 170.943 245.255 170.334 245.255C169.725 245.255 169.23 246.004 169.23 246.925C169.23 247.845 169.725 248.594 170.334 248.594C170.943 248.594 171.439 247.845 171.439 246.925V246.925Z" fill="white"/>
<path d="M181.589 248.594C182.198 248.594 182.693 247.845 182.693 246.925C182.693 246.004 182.198 245.255 181.589 245.255C180.98 245.255 180.485 246.004 180.485 246.925C180.485 247.845 180.98 248.594 181.589 248.594Z" fill="white"/>
<path d="M175.961 254.194C177.35 254.194 178.633 253.37 179.228 252.094C179.436 251.648 179.249 251.115 178.811 250.903C178.372 250.692 177.848 250.882 177.64 251.328C177.334 251.983 176.675 252.407 175.961 252.407C175.248 252.407 174.589 251.983 174.283 251.328C174.074 250.882 173.55 250.692 173.112 250.903C172.673 251.115 172.486 251.648 172.694 252.094C173.29 253.37 174.572 254.194 175.961 254.194Z" fill="white"/>
<path d="M202.167 264.35C202.777 264.35 203.272 263.603 203.272 262.681C203.272 261.759 202.777 261.012 202.167 261.012C201.557 261.012 201.063 261.759 201.063 262.681C201.063 263.603 201.557 264.35 202.167 264.35Z" fill="white"/>
<path d="M198.513 264.35C199.123 264.35 199.617 263.603 199.617 262.681C199.617 261.759 199.123 261.012 198.513 261.012C197.903 261.012 197.408 261.759 197.408 262.681C197.408 263.603 197.903 264.35 198.513 264.35Z" fill="white"/>
<path d="M214.935 278.337V268.839C214.935 268.346 214.541 267.946 214.056 267.946C213.57 267.946 213.177 268.346 213.177 268.839V274.661C213.087 274.514 212.998 274.372 212.91 274.236C211.581 272.191 210.239 271.019 209.576 270.513V268.294C211.374 268.151 212.794 266.618 212.794 264.754V263.023C212.794 262.529 212.401 262.129 211.915 262.129C211.43 262.129 211.036 262.529 211.036 263.023V264.754C211.036 265.727 210.257 266.519 209.3 266.519C208.342 266.519 207.563 265.727 207.563 264.754V259.005C208.53 259.067 209.441 259.513 210.093 260.251C210.417 260.619 210.973 260.649 211.334 260.32C211.695 259.99 211.725 259.425 211.401 259.058C210.365 257.884 208.883 257.211 207.333 257.211H206.963C205.983 256.536 204.843 256.179 203.647 256.179H199.591C196.322 256.179 193.663 258.883 193.663 262.207V264.939C191.681 265.353 190.187 267.14 190.187 269.276C190.187 271.717 192.141 273.703 194.542 273.703H197.125V276.259C195.631 277.896 194.197 278.654 192.858 278.511C191.15 278.327 189.944 276.717 189.549 276.114C189.573 275.754 189.552 275.358 189.482 274.923C189.382 274.3 189.208 273.755 189.125 273.516L188.623 267.703H188.623C188.62 267.673 188.616 267.643 188.61 267.613C187.756 263.088 186.071 260.548 184.874 259.248C186.13 258.566 187.174 257.541 187.884 256.289C188.14 256.743 188.455 257.165 188.826 257.541C189.936 258.67 191.415 259.288 192.965 259.288C193.19 259.288 193.418 259.275 193.646 259.249C194.052 259.201 194.372 258.876 194.419 258.463C194.624 256.642 194.012 254.856 192.74 253.563C192.129 252.941 191.397 252.471 190.598 252.176C192.655 249.62 193.764 246.587 193.764 243.4C193.764 234.908 185.777 228 175.96 228C166.144 228 158.158 234.908 158.158 243.4C158.158 246.587 159.267 249.62 161.324 252.176C160.526 252.471 159.793 252.941 159.183 253.562C157.91 254.855 157.298 256.641 157.503 258.463C157.55 258.875 157.87 259.201 158.276 259.248C158.505 259.275 158.732 259.288 158.958 259.288C160.508 259.288 161.987 258.67 163.096 257.541C163.467 257.165 163.782 256.743 164.038 256.289C164.748 257.54 165.792 258.566 167.048 259.248C165.851 260.548 164.166 263.088 163.312 267.613C163.306 267.645 163.302 267.677 163.299 267.709L162.798 273.516C162.715 273.755 162.541 274.3 162.441 274.923C162.236 276.202 162.438 277.162 163.042 277.776C163.589 278.333 164.428 278.502 165.244 278.502C165.674 278.502 166.096 278.455 166.468 278.393C166.531 279.164 166.624 279.97 166.757 280.811C166.825 281.245 167.193 281.563 167.625 281.563H170.691L171.439 284.532C169.858 284.927 168.682 286.38 168.682 288.107C168.682 288.6 169.075 289 169.561 289H175.96H182.36C182.846 289 183.239 288.6 183.239 288.107C183.239 286.38 182.063 284.927 180.482 284.532L181.23 281.563H184.297C184.728 281.563 185.096 281.245 185.165 280.811C185.297 279.97 185.391 279.164 185.454 278.393C185.825 278.455 186.248 278.502 186.678 278.502C187.41 278.502 188.16 278.365 188.702 277.935C189.496 278.882 190.84 280.086 192.659 280.286C192.836 280.306 193.012 280.315 193.189 280.315C194.503 280.315 195.82 279.774 197.124 278.706V279.299C197.124 281.781 198.893 283.851 201.216 284.274V287.213H200.341C199.856 287.213 199.462 287.613 199.462 288.106C199.462 288.6 199.856 289 200.341 289H215.656C216.142 289 216.535 288.6 216.535 288.106C216.535 284.045 215.843 280.821 214.935 278.337V278.337ZM192.691 257.491C191.707 257.424 190.78 257.001 190.069 256.277C189.448 255.648 189.047 254.838 188.915 253.965C189.026 253.863 189.136 253.76 189.243 253.656C190.093 253.793 190.882 254.201 191.497 254.826C192.208 255.549 192.624 256.492 192.691 257.491V257.491ZM159.232 257.491C159.297 256.491 159.714 255.548 160.426 254.826C161.039 254.201 161.829 253.793 162.678 253.656C162.786 253.76 162.896 253.863 163.007 253.965C162.875 254.838 162.473 255.647 161.853 256.278C161.142 257.001 160.215 257.424 159.232 257.491V257.491ZM164.779 252.698C164.74 251.921 164.718 250.327 164.712 247.959C164.711 247.466 164.318 247.067 163.833 247.067C163.833 247.067 163.832 247.067 163.831 247.067C163.346 247.068 162.953 247.469 162.954 247.963C162.958 249.402 162.967 250.541 162.983 251.401C160.992 249.089 159.916 246.312 159.916 243.4C159.916 235.894 167.114 229.787 175.96 229.787C184.808 229.787 192.006 235.894 192.006 243.4C192.006 246.313 190.93 249.09 188.939 251.402C188.979 249.15 188.969 245.508 188.957 243.252C188.955 242.872 188.716 242.534 188.362 242.411C185.229 241.324 182.326 237.063 182.297 237.02C182.159 236.815 181.943 236.678 181.702 236.641C181.46 236.605 181.214 236.672 181.023 236.827C177.347 239.817 173.419 241.213 169.348 240.976C166.299 240.799 164.299 239.722 164.281 239.712C164.01 239.562 163.681 239.567 163.415 239.726C163.149 239.885 162.984 240.175 162.981 240.488C162.981 240.506 162.966 242.234 162.958 244.39C162.956 244.884 163.348 245.285 163.833 245.287H163.837C164.321 245.287 164.714 244.889 164.716 244.397C164.719 243.416 164.725 242.524 164.729 241.842C165.725 242.206 167.252 242.634 169.154 242.755C172.132 242.945 176.616 242.388 181.398 238.789C182.394 240.093 184.622 242.717 187.202 243.868C187.215 246.727 187.221 251.128 187.142 252.697C186.986 255.786 184.576 258.225 181.535 258.371C177.837 258.549 174.085 258.549 170.386 258.371C167.346 258.225 164.936 255.786 164.779 252.698V252.698ZM180.908 260.186C180.374 261.723 178.326 262.906 175.961 262.906C173.597 262.906 171.549 261.723 171.015 260.186C172.658 260.255 174.309 260.292 175.961 260.292C177.613 260.292 179.265 260.255 180.908 260.186V260.186ZM168.863 259.949C168.963 259.974 169.065 259.995 169.166 260.015C169.346 261.246 170.062 262.372 171.229 263.233C172.504 264.175 174.185 264.693 175.961 264.693C177.738 264.693 179.419 264.175 180.694 263.233C181.861 262.372 182.577 261.246 182.757 260.015C182.858 259.995 182.959 259.973 183.059 259.949C183.864 260.653 185.697 262.668 186.701 267.071L183.407 267.7C183.149 267.749 182.926 267.915 182.799 268.15C182.672 268.385 182.657 268.666 182.755 268.914C182.929 269.351 183.127 270.016 183.303 270.866H168.618C168.795 270.016 168.993 269.353 169.166 268.916C169.266 268.667 169.251 268.386 169.124 268.151C168.998 267.915 168.774 267.749 168.515 267.7L165.221 267.071C166.225 262.668 168.057 260.653 168.863 259.949V259.949ZM164.285 276.512C163.978 276.2 164.136 274.947 164.482 274.035C164.512 273.956 164.532 273.874 164.539 273.789L164.966 268.841L167.204 269.268C166.832 270.592 166.295 273.137 166.374 276.594C165.421 276.773 164.522 276.754 164.285 276.512ZM175.082 284.425H173.227L172.505 281.563H175.082V284.425H175.082ZM172.303 286.212H172.545H175.082V287.213H170.66C170.975 286.618 171.594 286.212 172.303 286.212ZM181.261 287.213H176.84V286.212H179.377H179.618C180.328 286.212 180.946 286.618 181.261 287.213ZM178.695 284.425H176.84V281.563H179.416L178.695 284.425ZM183.538 279.776H180.549H175.961H171.373H168.384C168.02 277.015 168.092 274.57 168.327 272.653H183.595C183.83 274.57 183.901 277.015 183.538 279.776V279.776ZM187.638 276.512C187.4 276.754 186.501 276.773 185.548 276.594C185.627 273.137 185.09 270.593 184.718 269.268L186.957 268.841L187.384 273.789C187.391 273.874 187.41 273.957 187.44 274.036C187.898 275.229 187.864 276.282 187.638 276.512V276.512ZM191.945 269.275C191.945 267.82 193.11 266.635 194.542 266.635H195.35C195.617 267.996 196.801 269.026 198.217 269.026C199.633 269.026 200.817 267.996 201.084 266.635H201.892C203.324 266.635 204.489 267.82 204.489 269.275C204.489 270.731 203.324 271.916 201.892 271.916H194.542C193.11 271.916 191.945 270.731 191.945 269.275ZM197.201 266.635H199.232C199.032 266.995 198.652 267.238 198.217 267.238C197.782 267.238 197.402 266.995 197.201 266.635ZM201.892 273.703C204.293 273.703 206.247 271.717 206.247 269.275C206.247 266.834 204.293 264.848 201.892 264.848H195.421V262.206C195.421 259.868 197.292 257.966 199.591 257.966H203.647C204.419 257.966 205.157 258.177 205.805 258.578V264.754C205.805 266.174 206.63 267.402 207.818 267.97V270.78C207.427 271.564 205.209 275.362 198.882 275.688V273.703H201.892ZM205.78 287.213V283.459C205.78 282.966 205.386 282.565 204.901 282.565C204.416 282.565 204.022 282.966 204.022 283.459V287.213H202.974V283.459C202.974 282.966 202.581 282.565 202.095 282.565C200.324 282.565 198.882 281.1 198.882 279.299V277.478C205.048 277.197 207.897 273.988 208.971 272.314C209.601 272.865 210.556 273.836 211.504 275.315C212.926 277.536 214.608 281.371 214.766 287.213H205.78Z" fill="white"/>
</g>


<defs>
<filter id="filter0_d" x="-12" y="73" width="398" height="655" filterUnits="userSpaceOnUse" color-interpolation-filters="sRGB">
<feFlood flood-opacity="0" result="BackgroundImageFix"/>
<feColorMatrix in="SourceAlpha" type="matrix" values="0 0 0 0 0 0 0 0 0 0 0 0 0 0 0 0 0 0 127 0"/>
<feOffset dy="4"/>
<feGaussianBlur stdDeviation="2"/>
<feColorMatrix type="matrix" values="0 0 0 0 0 0 0 0 0 0 0 0 0 0 0 0 0 0 0.25 0"/>
<feBlend mode="normal" in2="BackgroundImageFix" result="effect1_dropShadow"/>
<feBlend mode="normal" in="SourceGraphic" in2="effect1_dropShadow" result="shape"/>
</filter>
<filter id="filter1_d" x="-4" y="26" width="398" height="655" filterUnits="userSpaceOnUse" color-interpolation-filters="sRGB">
<feFlood flood-opacity="0" result="BackgroundImageFix"/>
<feColorMatrix in="SourceAlpha" type="matrix" values="0 0 0 0 0 0 0 0 0 0 0 0 0 0 0 0 0 0 127 0"/>
<feOffset dy="4"/>
<feGaussianBlur stdDeviation="2"/>
<feColorMatrix type="matrix" values="0 0 0 0 0 0 0 0 0 0 0 0 0 0 0 0 0 0 0.25 0"/>
<feBlend mode="normal" in2="BackgroundImageFix" result="effect1_dropShadow"/>
<feBlend mode="normal" in="SourceGraphic" in2="effect1_dropShadow" result="shape"/>
</filter>
<clipPath id="clip0">
<rect width="375" height="667" fill="white"/>
</clipPath>
<clipPath id="clip1">
<rect x="227" y="565" width="25" height="25" fill="white"/>
</clipPath>
<clipPath id="clip2">
<rect x="157" y="228" width="60" height="61" fill="white"/>
</clipPath>
</defs>
</svg>